…
    ##           date        plantID         family          diaIn latShootRating 
    ##    "character"       "factor"      "numeric"      "numeric"      "numeric" 
    ##  inflorescence      leafShape   trichomesInt treatmentLevel      treatment 
    ##      "numeric"      "numeric"      "numeric"       "factor"       "factor" 
    ##     population        bolting      flowering             id          month 
    ##    "character"      "numeric"      "numeric"      "numeric"    "character" 
    ##        dateFac 
    ##       "factor"

``` r
fdata %>% distinct(plantID)
```

    ## # A tibble: 59 × 1
    ##    plantID  
    ##    <chr>    
    ##  1 M-14-08-A
    ##  2 M-14-08-B
    ##  3 M-14-08-C
    ##  4 M-14-08-D
    ##  5 M-14-08-E
    ##  6 M-14-08-F
    ##  7 M-14-08-G
    ##  8 M-14-08-H
    ##  9 M-14-08-I
    ## 10 M-14-08-J
    ## # … with 49 more rows

``` r
fdata %>% select(plantID, diaIn, month) %>%
  pivot_wider(names_from = "month", values_from = "diaIn") %>%
  mutate(check = ifelse(!is.na(Sep) & !is.na(Dec) & !is.na(Mar), 1, 0)) %>%
  filter(check == 1)
```

    ## # A tibble: 42 × 5
    ##    plantID     Sep   Dec   Mar check
    ##    <chr>     <dbl> <dbl> <dbl> <dbl>
    ##  1 M-14-08-B  63.5  94.0 107.      1
    ##  2 M-14-08-D  43.2 107.   91.4     1
    ##  3 M-14-08-E  38.1  66.0  86.4     1
    ##  4 M-14-08-F  76.2  94.0 117.      1
    ##  5 M-14-08-G  68.6 102.  132.      1
    ##  6 M-14-08-H  88.9 132.  119.      1
    ##  7 M-14-08-I  43.2 137.  132.      1
    ##  8 M-14-08-J  68.6  86.4 132.      1
    ##  9 M-14-08-K  50.8 122.  114.      1
    ## 10 M-14-08-L  61.0 107.  114.      1
    ## # … with 32 more rows
…
